     0  0.428571    -0.321429     0.696429    -0.357143           -1    -0.517857
    0.100647  0.428571    -0.321428     0.696428    -0.357142    -0.999999    -0.517857
    0.201293  0.428567    -0.321425     0.696425    -0.357134    -0.999991    -0.517852
     0.30194  0.428549    -0.321412     0.696409    -0.357097    -0.999955    -0.517832
      0.402586  0.4285    -0.321375     0.696366    -0.356999    -0.999856    -0.517776
    0.503233  0.428396    -0.321297     0.696275    -0.356792    -0.999649     -0.51766
    0.603879  0.428208    -0.321156     0.696111    -0.356416    -0.999273    -0.517448
    0.704526  0.427898    -0.320924     0.695839    -0.355796    -0.998653      -0.5171
    0.805172  0.337766    -0.253324     0.549674     -0.28022    -0.788478    -0.408223
    0.905819  0.337193    -0.252894     0.549172    -0.279074    -0.787331    -0.407578
     1.00647  0.336425    -0.252319     0.548501    -0.277539    -0.785797    -0.406715
  1.10711  9.66226e-06 -7.24669e-06    0.0019896   0.00306246 -0.000899835 -0.000230998
  1.20776  -0.00043832   0.00032874   0.00159762   0.00395843 -3.87143e-06  0.000272982
  1.3084  -0.000887951  0.000665963   0.00120419   0.00485769   0.00089539  0.000778817
 1.40905  -0.000265366  0.000199024   0.00255864   0.00487204 -0.000709641 -1.15568e-05
  1.5097  -0.000721858  0.000541394   0.00215921   0.00578502  0.000203344  0.000501998
  1.61034  -0.00118069  0.000885517   0.00175773   0.00670268   0.00112101   0.00101818
 1.71099  -0.000549439  0.000412079   0.00313729   0.00672695 -0.000509143  0.000216113
  1.81164  -0.00101773  0.000763297   0.00272753   0.00766353  0.000427438   0.00074294
 1.91228  -0.000367266   0.00027545   0.00414683   0.00768505  -0.00125133 -8.32909e-05
 2.01293  -0.000847036  0.000635277   0.00372703   0.00864459  -0.00029179   0.00045645
  2.11358  -0.00133062  0.000997961    0.0033039   0.00961175  0.000675368   0.00100048
  2.21422  -0.00066514  0.000498855   0.00476502   0.00964787  -0.00104617  0.000154169
  2.31487  -0.00116315  0.000872361   0.00432927    0.0106439  -5.0158e-05  0.000714428
  2.41552  -0.00166578   0.00124933   0.00388947    0.0116491  0.000955097   0.00127988
 2.51616  -0.000983167  0.000737375   0.00540043    0.0117052 -0.000816202  0.000410429
  2.61681  -0.00150345   0.00112759   0.00494519    0.0127458  0.000224366  0.000995748
  2.71746  -0.00202923   0.00152192   0.00448513    0.0137973   0.00127592   0.00158725
   2.8181  -0.00132751  0.000995631   0.00605435    0.0138798 -0.000552059  0.000691677
  2.91875  -0.00187452   0.00140589   0.00557571    0.0149738  0.000541962   0.00130706
   3.0194  -0.00113414  0.000850605    0.0072276    0.0150549  -0.00138504  0.000362578
  3.12004  -0.00170538   0.00127903   0.00672776    0.0161974 -0.000242564   0.00100522
  3.22069  -0.00228408   0.00171306    0.0062214    0.0173548  0.000914835   0.00165626
  3.32133  -0.00151799   0.00113849   0.00795268     0.017473  -0.00108887  0.000676528
  3.42198  -0.00212535   0.00159401   0.00742124    0.0186877  0.000125838    0.0013598
  3.52263  -0.00274132   0.00205599   0.00688226    0.0199196   0.00135779   0.00205277
  3.62327  -0.00194802   0.00146101   0.00870324    0.0200859  -0.00072963    0.0010351
   3.72392  -0.0025977   0.00194828   0.00813476    0.0213852  0.000569736     0.001766
  3.82457  -0.00174797   0.00131098    0.0100811    0.0215568  -0.00166429   0.00067641
  3.92521  -0.00243579   0.00182685   0.00947921    0.0229324 -0.000288645   0.00145021
  4.02586  -0.00313493   0.00235119   0.00886747    0.0243307   0.00110962   0.00223673
  4.12651  -0.00225163   0.00168873    0.0109304    0.0245709  -0.00123033   0.00109969
  4.22715  -0.00299547   0.00224661    0.0102796    0.0260586  0.000257345   0.00193651
   4.3278  -0.00375228   0.00281421   0.00961736    0.0275722   0.00177096   0.00278792
  4.42845  -0.00283531   0.00212649      0.01181    0.0279009  -0.00068088   0.00160185
  4.52909  -0.00364451   0.00273338    0.0111019    0.0295193  0.000937513    0.0025122
  4.62974  -0.00265048   0.00198786     0.013477    0.0298728  -0.00171956   0.00122666
  4.73039  -0.00351908   0.00263931     0.012717    0.0316099  1.76379e-05   0.00220383
  4.83103  -0.00440459   0.00330344    0.0119421     0.033381   0.00178866   0.00320003
  4.93168  -0.00337271   0.00252953    0.0144822     0.033864  -0.00100274   0.00185726
  5.03233  -0.00432804   0.00324603    0.0136463    0.0357747  0.000907921   0.00293201
  5.13297  -0.00320195   0.00240146    0.0164205    0.0363051  -0.00213929    0.0014664
  5.23362  -0.00423684   0.00317763    0.0155149    0.0383748 -6.95135e-05   0.00263064
  5.33426  -0.00529389   0.00397042      0.01459    0.0404889    0.0020446   0.00381983
  5.43491  -0.00412895   0.00309671    0.0175726     0.041213  -0.00115784   0.00229113
  5.53556  -0.00528007   0.00396006    0.0165653    0.0435152   0.00114442   0.00358615
   5.6362  -0.00400255   0.00300191    0.0198475     0.044327  -0.00237258   0.00190845
  5.73685  -0.00526162   0.00394621    0.0187459    0.0468451  0.000145564    0.0033249
   5.8375  -0.00655009   0.00491257    0.0176184     0.049422    0.0027225   0.00477443
  5.93814  -0.00523961    0.0039297    0.0211621    0.0505296 -0.000963771   0.00303381
  6.03879  -0.00665683   0.00499262     0.019922    0.0533641   0.00187067   0.00462818
  6.13944  -0.00521631   0.00391223    0.0238491    0.0546312  -0.00219555    0.0027113
  6.24008  -0.00678262   0.00508696    0.0224786    0.0577638  0.000937064    0.0044734
  6.34073  -0.00519574   0.00389681    0.0268478    0.0592266  -0.00356142   0.00235698
  6.44138  -0.00693553   0.00520165    0.0253254    0.0627062 -8.18331e-05   0.00431425
  6.54202  -0.00872132   0.00654099    0.0237629    0.0662778   0.00348975   0.00632326
  6.64267  -0.00712717   0.00534538    0.0285053    0.0682968  -0.00118636   0.00415789
  6.74332  -0.00912359   0.00684269    0.0267584    0.0722896   0.00280647   0.00640386
  6.84396  -0.00737407   0.00553055    0.0320675    0.0746678  -0.00237177   0.00401585
  6.94461  -0.00961864   0.00721398    0.0301035     0.079157   0.00211737   0.00654099
  7.04526  -0.00769974   0.00577481    0.0360687    0.0819866   -0.0036254   0.00390599
    7.1459  -0.0102386   0.00767897    0.0338472    0.0870644   0.00145236   0.00676223
  7.24655  -0.00813762   0.00610322    0.0405742    0.0904669  -0.00492237   0.00385542
   7.34719  -0.0110281   0.00827106    0.0380451    0.0962478  0.000858555   0.00710719
  7.44784  -0.00873532   0.00655149    0.0456584     0.100385  -0.00621904   0.00390482
   7.54849  -0.0120491   0.00903685    0.0427588     0.107012  0.000408597   0.00763286
  7.64913  -0.00956097   0.00717073    0.0514056       0.1121  -0.00744315   0.00411482
   7.74978  -0.0133891    0.0100418     0.048056     0.119756  0.000213044   0.00842143
   7.85043  -0.0107126   0.00803447    0.0579101     0.126089   -0.0084786   0.00457574
   7.95107  -0.0151716    0.0113787    0.0540085     0.135007  0.000439272   0.00959204
   8.05172  -0.0123325   0.00924941    0.0652745     0.142989  -0.00914179    0.0054224
   8.15237  -0.0175737    0.0131803    0.0606885     0.153472   0.00134055    0.0113187
   8.25301  -0.0146292    0.0109719    0.0736057     0.163668   -0.0091444   0.00685715
   8.35366  -0.0208521    0.0156391    0.0681607     0.176114   0.00330145    0.0138579
   8.45431  -0.0179116    0.0134337    0.0830059     0.189323  -0.00803392   0.00918628
   8.55495  -0.0253836    0.0190377     0.076468     0.204267   0.00690998    0.0175922
    8.6556  -0.0226445    0.0169834    0.0935538     0.221639  -0.00509661    0.0128787
   8.75625  -0.0317301    0.0237976    0.0856039      0.23981    0.0130745    0.0230999
   8.85689  -0.0295382    0.0221536     0.105268     0.263031  0.000803585    0.0186622
   8.95754  -0.0263497    0.0197623     0.129717     0.290346   -0.0151994    0.0126687
   9.05819  -0.0396994    0.0297745     0.118036     0.317045    0.0114998    0.0276871
   9.15883  -0.0378984    0.0284238     0.146346      0.35503  -0.00398416    0.0226904
   9.25948  -0.0350865    0.0263149     0.182222     0.401386   -0.0244594    0.0158142
    9.36012  -0.055898    0.0419235     0.164012     0.443009    0.0171635    0.0392271
   9.46077  -0.0567776    0.0425832       0.2056     0.510659  9.71699e-05    0.0355103
   9.56142  -0.0877578    0.0658183     0.171673      0.56201    0.0650887    0.0711208
    9.66206  -0.162261     0.121696    0.0107778     0.562144     0.256631     0.165571
    9.76271  -0.182788     0.137091  -0.00718324     0.603198     0.297685     0.188664
    9.86336  -0.198185     0.148639   -0.0033176     0.660961     0.320772     0.204059
      9.964  -0.216146     0.162109   0.00101336     0.728066     0.347784     0.222037
    10.0647  -0.237317     0.177988   0.00580598      0.80668     0.379764     0.243264
    10.1653  -0.262559     0.196919    0.0110174     0.899627     0.418115     0.268628
    10.2659  -0.346354     0.259765    -0.253596     0.769649     0.670724     0.384152
    10.3666  -0.431668     0.323751    -0.681805       0.3903      0.99849     0.519415
    10.4672  -0.397801      0.29835    -0.652171     0.322564     0.930754     0.481314
    10.5679  -0.367622     0.275716    -0.725194     0.107538     0.914588     0.458411
    10.6685  -0.322066     0.241549    -0.703523   -0.0118699      0.83156     0.409181
    10.7692  -0.275895     0.206921    -0.588009    0.0126334     0.705835     0.348893
    10.8698  -0.239281     0.179461    -0.491997    0.0389225     0.604174     0.300594
    10.9705  -0.204783     0.153588    -0.461811   -0.0300732     0.535178     0.261784
    11.0711  -0.179264     0.134448    -0.386029   0.00203796     0.460384     0.227136
    11.1718  -0.159068     0.119301    -0.327701    0.0248885     0.401922     0.199898
    11.2724  -0.139053     0.104289    -0.310188   -0.0151429      0.36189      0.17738
    11.3731  -0.126547      0.09491    -0.267753   0.00883304     0.322882     0.159812
    11.4737  -0.111168    0.0833759    -0.254296   -0.0219245     0.292125     0.142511
    11.5743  -0.103319    0.0774891    -0.222642  0.000934494      0.26541     0.130927
    11.675  -0.0963424    0.0722568     -0.19675    0.0177621     0.242663      0.12088
   11.7756  -0.0862795    0.0647096    -0.187945  -0.00236377     0.222537     0.109559
   11.8763  -0.0816303    0.0612227     -0.16788    0.0132216     0.206129     0.102551
   11.9769  -0.0734774    0.0551081    -0.160746  -0.00308419     0.189823    0.0933792
   12.0776  -0.0703478    0.0527608    -0.144929    0.0110023     0.177751    0.0884051
   12.1782  -0.0636482    0.0477361    -0.139066  -0.00239691     0.164352     0.080868
   12.2789  -0.0615248    0.0461436    -0.126405    0.0101625     0.155303    0.0772788
   12.3795  -0.0559507     0.041963    -0.121527 -0.000985746     0.144155    0.0710079
   12.4802  -0.0545012    0.0408759    -0.111251    0.0101267     0.137253    0.0683764
   12.5808  -0.0498123    0.0373592    -0.107149  0.000748907     0.127875    0.0631013
   12.6815  -0.0452659    0.0339494    -0.103171  -0.00834391     0.118782    0.0579866
   12.7821  -0.0448346     0.033626   -0.0952197   0.00257457     0.114553      0.05666
   12.8828  -0.0409655    0.0307241   -0.0918342  -0.00516374     0.106815    0.0523072
   12.9834  -0.0407357    0.0305518   -0.0852157   0.00435933     0.103503    0.0513356
    13.084  -0.0374144    0.0280608   -0.0823096  -0.00228318    0.0968609    0.0475992
   13.1847  -0.0373123    0.0279842   -0.0767435   0.00603193    0.0942225    0.0468758
    13.2853  -0.034439    0.0258293   -0.0742294   0.00028539    0.0884759    0.0436434
    13.386  -0.0316397    0.0237298     -0.07178  -0.00531315    0.0828774    0.0404942
   13.4866  -0.0319123    0.0239342   -0.0673135   0.00255074    0.0813313     0.040278
     13.5873  -0.02947    0.0221025   -0.0651766  -0.00233376    0.0764468    0.0375305
   13.6879  -0.0297401    0.0223051   -0.0613461   0.00453258    0.0751795    0.0373825
   13.7886  -0.0275957    0.0206968   -0.0594697  0.000243751    0.0708907      0.03497
   13.8892  -0.0255014    0.0191261   -0.0576372  -0.00394476    0.0667022    0.0326139
   13.9899  -0.0259579    0.0194684   -0.0545012    0.0024676    0.0660438    0.0327346
   14.0905  -0.0241061    0.0180795   -0.0528809    -0.001236    0.0623402    0.0306513
   14.1912  -0.0245119    0.0183839    -0.050146   0.00438219    0.0617785    0.0307645
   14.2918  -0.0228657    0.0171492   -0.0487056   0.00108975    0.0584861    0.0289126
   14.3924  -0.0212547     0.015941    -0.047296  -0.00213222    0.0552641    0.0271002
   14.4931  -0.0217527    0.0163145   -0.0450175   0.00308594    0.0550538    0.0273589
    14.5937  -0.020312     0.015234    -0.043757   0.00020458    0.0521725    0.0257381
    14.6944  -0.018901    0.0141757   -0.0425223  -0.00261748    0.0493504    0.0241507
    14.795  -0.0194516    0.0145887   -0.0406085   0.00221014    0.0493869     0.024504
   14.8957  -0.0181828    0.0136371   -0.0394983 -0.000327472    0.0468493    0.0230766
   14.9963  -0.0169391    0.0127043   -0.0384101  -0.00281481     0.044362    0.0216774
    15.097  -0.0175151    0.0131363   -0.0367902   0.00164079    0.0445699    0.0220894
    15.1976  -0.016391    0.0122933   -0.0358067 -0.000607239    0.0423219    0.0208249
   15.2983  -0.0152885    0.0114664    -0.034842  -0.00281235    0.0401168    0.0195845
   15.3989  -0.0158711    0.0119033   -0.0334608    0.0012945    0.0404416    0.0200299
   15.4996  -0.0148699    0.0111524   -0.0325847 -0.000707917    0.0384392    0.0189035
   15.6002  -0.0138871    0.0104154   -0.0317248  -0.00267347    0.0364736    0.0177979
   15.7009  -0.0144639     0.010848   -0.0305389   0.00110998    0.0368759    0.0182589
   15.8015  -0.0135675    0.0101757   -0.0297546  -0.00068282    0.0350831    0.0172505
   15.9021  -0.0126871    0.0095153   -0.0289841  -0.00244377    0.0333221    0.0162599
   16.0028  -0.0132498   0.00993734   -0.0279591   0.00104204    0.0337731    0.0167244
   16.1034  -0.0124433    0.0093325   -0.0272535 -0.000570848    0.0321603    0.0158172
   16.2041  -0.0116507   0.00873804   -0.0265599  -0.00215608     0.030575    0.0149255
   16.3047  -0.0121941   0.00914559   -0.0256683   0.00105727    0.0310542    0.0153849
   16.4054  -0.0114653   0.00859896   -0.0250306 -0.000400386    0.0295966    0.0145649
    16.506  -0.0107485   0.00806139   -0.0244034  -0.00183391     0.028163    0.0137586
   16.6067  -0.0112695   0.00845213   -0.0236231   0.00113098    0.0286556    0.0142073
    16.7073  -0.010608   0.00795597   -0.0230443 -0.000192102    0.0273325    0.0134631
   16.808  -0.00995699   0.00746774   -0.0224747  -0.00149404    0.0260306    0.0127308
    16.9086  -0.010454   0.00784048   -0.0217878   0.00124492     0.026526    0.0131652
  17.0093  -0.00985103   0.00738827   -0.0212602  3.90293e-05    0.0253201    0.0124869
  17.1099  -0.00925739   0.00694304   -0.0207407  -0.00114826    0.0241328    0.0118191
  17.2106  -0.00972984   0.00729738   -0.0201326   0.00138567    0.0246237    0.0122371
  17.3112  -0.00917813    0.0068836   -0.0196499  0.000282246    0.0235203    0.0116164
  17.4118  -0.00863463   0.00647597   -0.0191743 -0.000804763    0.0224333     0.011005
  17.5125  -0.00908275   0.00681206    -0.018633   0.00154342    0.0229147    0.0114054
    17.6131  -0.008576     0.006432   -0.0181896  0.000529916    0.0219012    0.0108353
  17.7138  -0.00807652   0.00605739   -0.0177526 -0.000469052    0.0209022    0.0102734
  17.8144  -0.00758424   0.00568818   -0.0173218  -0.00145361    0.0199176   0.00971956
  17.9151  -0.00803385   0.00602539   -0.0168595  0.000776736    0.0204365    0.0101303
  18.0157  -0.00757314   0.00567986   -0.0164564 -0.000144679    0.0195151   0.00961199
  18.1164  -0.00711883   0.00533912   -0.0160589   -0.0010533    0.0186065    0.0091009
   18.217  -0.00754283   0.00565712   -0.0156427   0.00101914    0.0191047   0.00949043
  18.3177  -0.00711638   0.00533729   -0.0152696  0.000166249    0.0182518   0.00901068
  18.4183  -0.00669563   0.00502172   -0.0149014 -0.000675255    0.0174103   0.00853733
   18.519  -0.00709567   0.00532175    -0.014525   0.00125487    0.0178875   0.00890666
  18.6196  -0.00669957   0.00502468   -0.0141784  0.000462679    0.0170953   0.00846105
  18.7202  -0.00630856   0.00473142   -0.0138363 -0.000319352    0.0163132   0.00802116
  18.8209  -0.00592258   0.00444194   -0.0134986   -0.0010913    0.0155413   0.00758694
  18.9215  -0.00631721   0.00473791   -0.0131712  0.000744335    0.0160316   0.00795615
  19.0222  -0.00595261   0.00446445   -0.0128522  1.51296e-05    0.0153024   0.00754597
  19.1228  -0.00559251   0.00419438   -0.0125371  -0.00070507    0.0145822   0.00714086
  19.2235  -0.00596472   0.00447354   -0.0122378    0.0010115    0.0150489   0.00749016
  19.3241  -0.00562363   0.00421772   -0.0119393  0.000329312    0.0143667   0.00710643
  19.4248  -0.00528656   0.00396492   -0.0116444 -0.000344823    0.0136925   0.00672723
  19.5254  -0.00495349   0.00371512    -0.011353  -0.00101096    0.0130264   0.00635253
  19.6261  -0.00531817   0.00398863   -0.0110895  0.000624597    0.0134968   0.00669807
  19.7267  -0.00500164   0.00375123   -0.0108126   -8.466e-06    0.0128638   0.00634197
  19.8274  -0.00468869   0.00351652   -0.0105387 -0.000634372    0.0122379    0.0059899
   19.928  -0.00503336   0.00377502   -0.0102954  0.000902571    0.0126851   0.00631712
  20.0287  -0.00473517   0.00355138   -0.0100345  0.000306178    0.0120887   0.00598165
  20.1293  -0.00444017   0.00333013   -0.0097764 -0.000283813    0.0114987   0.00564978
  20.2299  -0.00414836   0.00311127  -0.00952106 -0.000867436    0.0109151   0.00532149
  20.3306  -0.00448499   0.00336374  -0.00930421  0.000601316     0.011361   0.00564337
  20.4312  -0.00420604   0.00315453  -0.00906013  4.34169e-05    0.0108031   0.00532955
  20.5319  -0.00392993   0.00294745  -0.00881854 -0.000508789    0.0102509   0.00501894
  20.6325  -0.00424929   0.00318697  -0.00861633  0.000879157    0.0106756   0.00532469
  20.7332  -0.00398468   0.00298851   -0.0083848  0.000349946    0.0101463   0.00502701
  20.8338  -0.00372262   0.00279196  -0.00815549 -0.000174183   0.00962222   0.00473219
  20.9345  -0.00346308   0.00259731   -0.0079284 -0.000693252   0.00910315   0.00444021
  21.0351  -0.00377478   0.00283108  -0.00774587  0.000638321    0.0095242   0.00474029
  21.1358  -0.00352526   0.00264394  -0.00752754  0.000139282   0.00902516   0.00445958
  21.2364  -0.00327799   0.00245849  -0.00731118  -0.00035525   0.00853063    0.0041814
  21.3371  -0.00303297   0.00227473  -0.00709679 -0.000845294   0.00804058   0.00390575
  21.4377  -0.00333689   0.00250267  -0.00693082  0.000434372   0.00845646   0.00419967
  21.5384  -0.00310057   0.00232543  -0.00672405  -3.8262e-05   0.00798383   0.00393381
   21.639  -0.00286625   0.00214969  -0.00651901 -0.000506908   0.00751518    0.0036702
   21.7396  -0.0031567   0.00236753   -0.0063619  0.000713734   0.00791331   0.00395127
  21.8403  -0.00293014   0.00219761  -0.00616366  0.000260612   0.00746019   0.00369639
  21.9409  -0.00270534   0.00202901  -0.00596696 -0.000188984   0.00701059   0.00344349
   22.0416  -0.0024823   0.00186173   -0.0057718 -0.000635066   0.00656451   0.00319257
  22.1422  -0.00276615   0.00207461  -0.00562706  0.000544125   0.00695749   0.00346821
  22.2429  -0.00254981   0.00191236  -0.00543776  0.000111447   0.00652481   0.00322483
  22.3435  -0.00233501   0.00175126  -0.00524982 -0.000318143   0.00609522   0.00298319
  22.4442  -0.00212176   0.00159132  -0.00506322 -0.000744654   0.00566871   0.00274328
  22.5448  -0.00239927   0.00179946  -0.00492881  0.000397196   0.00605608   0.00301357
  22.6455  -0.00219177   0.00164382  -0.00474724 -1.78222e-05   0.00564106   0.00278012
   22.7461  -0.0019856    0.0014892  -0.00456684 -0.000430155   0.00522873   0.00254818
  22.8468  -0.00225345   0.00169009  -0.00443774  0.000670943   0.00560289   0.00280913
  22.9474  -0.00205234   0.00153926  -0.00426177  0.000268728   0.00520067   0.00258288
   23.048  -0.00185239    0.0013893  -0.00408682 -0.000131171   0.00480078   0.00235794
   23.1487  -0.0016536    0.0012402  -0.00391287 -0.000528761   0.00440319    0.0021343
  23.2493  -0.00191658   0.00143744  -0.00379134  0.000544208   0.00477287   0.00239108
    23.35  -0.00172204   0.00129153  -0.00362112  0.000155126   0.00438379   0.00217222
  23.4506  -0.00152848   0.00114636  -0.00345176 -0.000231993   0.00399667   0.00195447
   23.5513  -0.0013359   0.00100193  -0.00328325 -0.000617154   0.00361151   0.00173782
  23.6519  -0.00159449   0.00119586  -0.00316788  0.000431439   0.00397684   0.00199076
  23.7526  -0.00140542   0.00105406  -0.00300244  5.32982e-05    0.0035987   0.00177806
  23.8532  -0.00121716   0.00091287  -0.00283772 -0.000323213   0.00322219   0.00156627
  23.9539  -0.00102972  0.000772288   -0.0026737 -0.000698099    0.0028473    0.0013554
  24.0545  -0.00128441  0.000963307  -0.00256323  0.000329802   0.00320854   0.00160489
  24.1552  -0.00109978  0.000824837  -0.00240168 -3.94505e-05   0.00283928   0.00139719
 24.2558  -0.000915813   0.00068686   -0.0022407  -0.00040739   0.00247134   0.00119022
   24.3565  -0.0011655  0.000874125  -0.00213252  0.000600117   0.00282554   0.00143482
 24.4571  -0.000983844  0.000737883  -0.00197357  0.000236803   0.00246223   0.00123046
 24.5577  -0.000802692  0.000602019  -0.00181507 -0.000125501   0.00209992   0.00102666
 24.6584  -0.000622044  0.000466533    -0.001657 -0.000486797   0.00173863  0.000823434
  24.759  -0.000869431  0.000652073  -0.00155193  0.000508139    0.0020905   0.00106602
 24.8597  -0.000690468  0.000517851  -0.00139534  0.000150214   0.00173257  0.000864685
 24.9603  -0.000511863  0.000383897  -0.00123906 -0.000206996   0.00137536  0.000663755
  25.061  -0.000333615  0.000250211  -0.00108309 -0.000563493   0.00101886  0.000463225
    25.1616  0.0992731   -0.0744549     0.011441    -0.315871    -0.165025    -0.103302
    25.2623  0.0995344   -0.0746508    0.0116695    -0.316393    -0.165547    -0.103596
     25.3629  0.099762   -0.0748215    0.0118687    -0.316849    -0.166003    -0.103852
    25.4636  0.0999586    -0.074969    0.0120408    -0.317242    -0.166396    -0.104073
      25.5642  0.31533    -0.236497    0.0390716    -0.999081    -0.525397     -0.32843
      25.6649  0.31552     -0.23664     0.039238    -0.999461    -0.525777    -0.328644
     25.7655  0.315644    -0.236733    0.0393464    -0.999709    -0.526025    -0.328784
     25.8662  0.315719     -0.23679    0.0394123     -0.99986    -0.526176    -0.328868
     25.9668  0.315761    -0.236821    0.0394486    -0.999943    -0.526258    -0.328915
      26.0674  0.31578    -0.236835    0.0394657    -0.999982    -0.526298    -0.328937
     26.1681  0.315788    -0.236841    0.0394721    -0.999996    -0.526312    -0.328945
     26.2687  0.315789    -0.236842    0.0394736           -1    -0.526316    -0.328947
     26.3694  0.315789    -0.236842    0.0394737           -1    -0.526316    -0.328947